…
``` r
pie_crab %>% 
  mutate(size_category = if_else(size >20, "large",
                         if_else(size <20 & size>10, "medium", "small")))
```

    ## # A tibble: 392 × 10
    ##    date       latitude site   size air_temp air_temp_sd water_temp water_temp_sd
    ##    <date>        <dbl> <chr> <dbl>    <dbl>       <dbl>      <dbl>         <dbl>
    ##  1 2016-07-24       30 GTM    12.4     21.8        6.39       24.5          6.12
    ##  2 2016-07-24       30 GTM    14.2     21.8        6.39       24.5          6.12
    ##  3 2016-07-24       30 GTM    14.5     21.8        6.39       24.5          6.12
    ##  4 2016-07-24       30 GTM    12.9     21.8        6.39       24.5          6.12
    ##  5 2016-07-24       30 GTM    12.4     21.8        6.39       24.5          6.12
    ##  6 2016-07-24       30 GTM    13.0     21.8        6.39       24.5          6.12
    ##  7 2016-07-24       30 GTM    10.3     21.8        6.39       24.5          6.12
    ##  8 2016-07-24       30 GTM    11.2     21.8        6.39       24.5          6.12
    ##  9 2016-07-24       30 GTM    12.7     21.8        6.39       24.5          6.12
    ## 10 2016-07-24       30 GTM    14.6     21.8        6.39       24.5          6.12
    ## # ℹ 382 more rows
    ## # ℹ 2 more variables: name <chr>, size_category <chr>

``` r
#e
pie_crab %>% 
  mutate(size_category3 = case_when(size >20 ~ "large",
                                   size <20 & size >=10 ~ "medium",
                                   size <10 ~ "small"))
```

    ## # A tibble: 392 × 10
    ##    date       latitude site   size air_temp air_temp_sd water_temp water_temp_sd
    ##    <date>        <dbl> <chr> <dbl>    <dbl>       <dbl>      <dbl>         <dbl>
    ##  1 2016-07-24       30 GTM    12.4     21.8        6.39       24.5          6.12
    ##  2 2016-07-24       30 GTM    14.2     21.8        6.39       24.5          6.12
    ##  3 2016-07-24       30 GTM    14.5     21.8        6.39       24.5          6.12
    ##  4 2016-07-24       30 GTM    12.9     21.8        6.39       24.5          6.12
    ##  5 2016-07-24       30 GTM    12.4     21.8        6.39       24.5          6.12
    ##  6 2016-07-24       30 GTM    13.0     21.8        6.39       24.5          6.12
    ##  7 2016-07-24       30 GTM    10.3     21.8        6.39       24.5          6.12
    ##  8 2016-07-24       30 GTM    11.2     21.8        6.39       24.5          6.12
    ##  9 2016-07-24       30 GTM    12.7     21.8        6.39       24.5          6.12
    ## 10 2016-07-24       30 GTM    14.6     21.8        6.39       24.5          6.12
    ## # ℹ 382 more rows
    ## # ℹ 2 more variables: name <chr>, size_category3 <chr>
